src/rtl/peripherals/fifo/sim/simdump.vcd
$date
  Tue Jun 23 15:20:37 2020
$end
$version
  GHDL v0
$end
$timescale
  1 fs
$end
$scope module standard $end
$upscope $end
$scope module textio $end
$upscope $end
$scope module std_logic_1164 $end
$upscope $end
$scope module numeric_std $end
$upscope $end
$scope module types_pkg $end
$upscope $end
$scope module adaptations_pkg $end
$var reg 1 ! global_show_msg_for_uvvm_cmd $end
$upscope $end
$scope module math_real $end
$upscope $end
$scope module string_methods_pkg $end
$upscope $end
$scope module protected_types_pkg $end
$upscope $end
$scope module global_signals_and_shared_variables_pkg $end
$var reg 1 " global_trigger $end
$var reg 1 # global_barrier $end
$upscope $end
$scope module hierarchy_linked_list_pkg $end
$upscope $end
$scope module license_pkg $end
$upscope $end
$scope module env $end
$upscope $end
$scope module alert_hierarchy_pkg $end
$upscope $end
$scope module methods_pkg $end
$upscope $end
$scope module bfm_common_pkg $end
$upscope $end
$scope module ti_protected_types_pkg $end
$upscope $end
$scope module ti_vvc_framework_support_pkg $end
$var reg 1 $ vvc_broadcast $end
$var reg 1 % global_trigger_vvc_activity_register $end
$var reg 10 & global_awaiting_completion[9:0] $end
$upscope $end
$scope module generic_sb_support_pkg $end
$upscope $end
$scope module local_pkg $end
$upscope $end
$scope module slv_sb_pkg $end
$upscope $end
$scope module sbi_bfm_pkg $end
$upscope $end
$scope module transaction_pkg $end
$var reg 8 ' global_sbi_vvc_transaction_trigger[0:7] $end
$upscope $end
$scope module vvc_cmd_pkg $end
$upscope $end
$scope module td_target_support_pkg $end
$var reg 1 ( global_vvc_ack $end
$var reg 1 ) global_vvc_busy $end
$upscope $end
$scope module vvc_methods_pkg $end
$comment sbi_vvct is not handled $end
$upscope $end
$scope module td_vvc_framework_common_methods_pkg $end
$upscope $end
$scope module vvc_cmd_pkg $end
$upscope $end
$scope module td_target_support_pkg $end
$var reg 1 * global_vvc_ack $end
$var reg 1 + global_vvc_busy $end
$upscope $end
$scope module vvc_methods_pkg $end
$comment clock_generator_vvct is not handled $end
$upscope $end
$scope module td_vvc_framework_common_methods_pkg $end
$upscope $end
$scope module std_logic_arith $end
$upscope $end
$scope module std_logic_unsigned $end
$upscope $end
$scope module td_cmd_queue_pkg $end
$upscope $end
$scope module td_result_queue_pkg $end
$upscope $end
$scope module td_vvc_entity_support_pkg $end
$upscope $end
$scope module td_cmd_queue_pkg $end
$upscope $end
$scope module td_result_queue_pkg $end
$upscope $end
$scope module td_vvc_entity_support_pkg $end
$upscope $end
$scope module tb_fifo $end
$scope module i_test_harness $end
$var reg 1 , wrclk $end
$var reg 1 - wrrst $end
$var reg 1 . rdclk $end
$var reg 1 / rdrst $end
$var reg 1 0 cs $end
$var reg 3 1 addr[2:0] $end
$var reg 1 2 wr $end
$var reg 1 3 rd $end
$var reg 8 4 wdata[7:0] $end
$var reg 8 5 rdata[7:0] $end
$var reg 1 6 ready $end
$var reg 1 7 fifo_full $end
$var reg 1 8 fifo_empty $end
$scope module i_ti_uvvm_engine $end
$upscope $end
$scope module fifo0 $end
$var reg 1 9 i_wrclk $end
$var reg 1 : i_wrrst $end
$var reg 1 ; i_wren $end
$var reg 8 < i_wrdata[7:0] $end
$var reg 1 = o_full $end
$var reg 1 > i_rdclk $end
$var reg 1 ? i_rdrst $end
$var reg 1 @ i_rden $end
$var reg 8 A o_rddata[7:0] $end
$var reg 1 B o_empty $end
$comment mem is not handled $end
$var reg 3 C rd_addr[2:0] $end
$var reg 3 D wr_addr[2:0] $end
$var reg 8 E rd_data[7:0] $end
$var reg 8 F wr_data[7:0] $end
$var reg 3 G count[2:0] $end
$var reg 1 H full $end
$var reg 1 I empty $end
$upscope $end
$scope module i1_sbi_vvc $end
$var reg 1 J clk $end
$comment sbi_vvc_master_if is not handled $end
$var reg 1 K executor_is_busy $end
$var reg 1 L queue_is_increasing $end
$var integer 32 M last_cmd_idx_executed $end
$comment terminate_current_cmd is not handled $end
$var integer 32 N entry_num_in_vvc_activity_register $end
$upscope $end
$scope module i_wrclock_generator_vvc $end
$var reg 1 O clk $end
$var reg 1 P executor_is_busy $end
$var reg 1 Q queue_is_increasing $end
$var integer 32 R last_cmd_idx_executed $end
$comment terminate_current_cmd is not handled $end
$var reg 1 S clock_ena $end
$var integer 32 T entry_num_in_vvc_activity_register $end
$upscope $end
$scope module i_rdclock_generator_vvc $end
$var reg 1 U clk $end
$var reg 1 V executor_is_busy $end
$var reg 1 W queue_is_increasing $end
$var integer 32 X last_cmd_idx_executed $end
$comment terminate_current_cmd is not handled $end
$var reg 1 Y clock_ena $end
$var integer 32 Z entry_num_in_vvc_activity_register $end
$upscope $end
$upscope $end
$upscope $end
$enddefinitions $end
#0
1!
L"
X#
Z$
L%
bZZZZZZZZZZ &
b00000000 '
Z(
L)
Z*
L+
1,
0-
1.
1/
00
b000 1
02
03
b00000000 4
b00000000 5
16
07
18
19
1:
0;
b00000000 <
0=
1>
1?
0@
b00000000 A
1B
b000 C
b000 D
b00000000 E
bUUUUUUUU F
b000 G
0H
1I
1J
0K
0L
b0 M
b10 N
1O
0P
0Q
b1 R
1S
b1 T
1U
0V
0W
b1 X
1Y
b0 Z
#5000000
0,
0.
09
0>
0J
0O
0U
#10000000
1,
1.
19
1>
1J
1O
1U
#15000000
0,
0.
09
0>
0J
0O
0U
#20000000
1,
1.
0/
bUUUUUUUU 5
19
0:
1>
0?
bUUUUUUUU A
bUUUUUUUU E
1J
1O
1U
#25000000
0,
0.
09
0>
0J
0O
0U
#30000000
1,
1.
b00000000 5
19
1>
b00000000 A
b00000000 E
1J
1O
1U
#35000000
0,
0.
09
0>
0J
0O
0U
#40000000
1,
1.
19
1>
1J
1O
1U
#45000000
0,
0.
09
0>
0J
0O
0U
#50000000
1,
1.
19
1>
1J
1O
1U
#55000000
0,
0.
09
0>
0J
0O
0U
#60000000
1,
1.
19
1>
1J
1O
1U
#65000000
0,
0.
09
0>
0J
0O
0U
#70000000
1,
1.
19
1>
1J
1O
1U
#75000000
0,
0.
09
0>
0J
0O
0U
#80000000
1,
1.
19
1>
1J
1O
1U
#85000000
0,
0.
09
0>
0J
0O
0U
#90000000
1,
1.
19
1>
1J
1O
1U
#95000000
0,
0.
09
0>
0J
0O
0U
#100000000
Z$
L%
b00000000 '
Z(
L)
1,
1.
19
1>
1J
1K
0L
1O
1U
#105000000
0,
0.
10
b010 1
12
b01010101 4
09
1;
b01010101 <
0>
0J
0O
0U
#110000000
1,
1.
08
19
1>
0B
b001 D
b001 G
0I
1J
1O
1U
#112500000
L%
b00000000 '
00
02
0;
1K
b101 M
#115000000
0,
0.
10
12
09
1;
0>
0J
0O
0U
#120000000
1,
1.
b01010101 5
19
1>
b01010101 A
b010 D
b01010101 E
b010 G
1J
1O
1U
#122500000
L%
b00000000 '
00
02
0;
1K
b110 M
#125000000
0,
0.
10
12
09
1;
0>
0J
0O
0U
#130000000
1,
1.
19
1>
b011 D
b011 G
1J
1O
1U
#132500000
L%
b00000000 '
00
02
0;
1K
b111 M
#135000000
0,
0.
10
12
09
1;
0>
0J
0O
0U
#140000000
1,
1.
19
1>
b100 D
b100 G
1J
1O
1U
#142500000
L%
b00000000 '
00
02
0;
1K
b1000 M
#145000000
0,
0.
10
12
09
1;
0>
0J
0O
0U
#150000000
1,
1.
19
1>
b101 D
b101 G
1J
1O
1U
#152500000
L%
b00000000 '
00
02
0;
1K
b1001 M
#155000000
0,
0.
10
12
09
1;
0>
0J
0O
0U
#160000000
1,
1.
19
1>
b110 D
b110 G
1J
1O
1U
#162500000
L%
b00000000 '
00
02
0;
1K
b1010 M
#165000000
0,
0.
10
12
09
1;
0>
0J
0O
0U
#170000000
1,
1.
17
19
1=
1>
b111 D
b111 G
1H
1J
1O
1U
#172500000
L%
b00000000 '
00
02
0;
1K
b1011 M
#175000000
0,
0.
10
12
09
1;
0>
0J
0O
0U
#180000000
1,
1.
19
1>
1J
1O
1U
#182500000
L%
b00000000 '
00
02
0;
1K
b1100 M
#185000000
0,
0.
10
12
09
1;
0>
0J
0O
0U
#190000000
1,
1.
19
1>
1J
1O
1U
#192500000
L%
b00000000 '
00
02
0;
1K
b1101 M
#195000000
0,
0.
10
12
09
1;
0>
0J
0O
0U
#200000000
1,
1.
19
1>
1J
1O
1U
#202500000
L%
b00000000 '
00
02
0;
1K
b1110 M
#205000000
0,
0.
10
12
09
1;
0>
0J
0O
0U
#210000000
1,
1.
19
1>
1J
1O
1U
#212500000
L%
b00000000 '
00
02
0;
1K
b1111 M
#215000000
0,
0.
10
12
09
1;
0>
0J
0O
0U
#220000000
1,
1.
19
1>
1J
1O
1U
#222500000
L%
b00000000 '
00
02
0;
1K
b10000 M
#225000000
0,
0.
10
13
09
0>
1@
0J
0O
0U
#230000000
1,
1.
07
19
0=
1>
b001 C
b110 G
0H
1J
1O
1U
#232500000
L%
b00000000 '
00
03
0@
1K
b10001 M
#235000000
0,
0.
10
13
09
0>
1@
0J
0O
0U
#240000000
1,
1.
19
1>
b010 C
b101 G
1J
1O
1U
#242500000
L%
b00000000 '
00
03
0@
1K
b10010 M
#245000000
0,
0.
10
13
09
0>
1@
0J
0O
0U
#250000000
1,
1.
19
1>
b011 C
b100 G
1J
1O
1U
#252500000
L%
b00000000 '
00
03
0@
1K
b10011 M
#255000000
0,
0.
10
13
09
0>
1@
0J
0O
0U
#260000000
1,
1.
19
1>
b100 C
b011 G
1J
1O
1U
#262500000
L%
b00000000 '
00
03
0@
1K
b10100 M
#265000000
0,
0.
10
13
09
0>
1@
0J
0O
0U
#270000000
1,
1.
19
1>
b101 C
b010 G
1J
1O
1U
#272500000
L%
b00000000 '
00
03
0@
1K
b10101 M
#275000000
0,
0.
10
13
09
0>
1@
0J
0O
0U
#280000000
1,
1.
19
1>
b110 C
b001 G
1J
1O
1U
#282500000
L%
b00000000 '
00
03
0@
1K
b10110 M
#285000000
0,
0.
10
13
09
0>
1@
0J
0O
0U
#290000000
1,
1.
18
19
1>
1B
b111 C
b000 G
1I
1J
1O
1U
#292500000
L%
b00000000 '
00
03
0@
1K
b10111 M
#295000000
0,
0.
10
13
09
0>
1@
0J
0O
0U
#300000000
Z$
Z(
L)
1,
1.
19
1>
1J
0L
1O
1U
#302500000
L%
b00000000 '
00
03
0@
1K
b11000 M
#305000000
0,
0.
10
13
09
0>
1@
0J
0O
0U
#310000000
1,
1.
19
1>
1J
1O
1U
#312500000
L%
b00000000 '
00
03
0@
1K
b11001 M
#315000000
0,
0.
10
13
09
0>
1@
0J
0O
0U
#320000000
1,
1.
19
1>
1J
1O
1U
#322500000
L%
b00000000 '
00
03
0@
1K
b11010 M
#325000000
0,
0.
10
13
09
0>
1@
0J
0O
0U
#330000000
1,
1.
19
1>
1J
1O
1U
#332500000
L%
b00000000 '
00
03
0@
1K
b11011 M
#335000000
0,
0.
10
13
09
0>
1@
0J
0O
0U
#340000000
1,
1.
19
1>
1J
1O
1U
#342500000
L%
b00000000 '
00
03
0@
1K
b11100 M
#345000000
0,
0.
10
12
09
1;
0>
0J
0O
0U
#350000000
1,
1.
08
19
1>
0B
b000 D
b001 G
0I
1J
1O
1U
#352500000
L%
b00000000 '
00
02
0;
1K
b11101 M
#355000000
0,
0.
10
12
09
1;
0>
0J
0O
0U
#360000000
1,
1.
19
1>
b001 D
b010 G
1J
1O
1U
#362500000
L%
b00000000 '
00
02
0;
1K
b11110 M
#365000000
0,
0.
10
12
09
1;
0>
0J
0O
0U
#370000000
1,
1.
19
1>
b010 D
b011 G
1J
1O
1U
#372500000
L%
b00000000 '
00
02
0;
1K
b11111 M
#375000000
0,
0.
10
12
09
1;
0>
0J
0O
0U
#380000000
1,
1.
19
1>
b011 D
b100 G
1J
1O
1U
#382500000
L%
b00000000 '
00
02
0;
1K
b100000 M
#385000000
0,
0.
10
12
09
1;
0>
0J
0O
0U
#390000000
1,
1.
19
1>
b100 D
b101 G
1J
1O
1U
#392500000
L%
b00000000 '
00
02
0;
1K
b100001 M
#395000000
0,
0.
10
12
09
1;
0>
0J
0O
0U
#400000000
1,
1.
19
1>
b101 D
b110 G
1J
1O
1U
#402500000
L%
b00000000 '
00
02
0;
1K
b100010 M
#405000000
0,
0.
10
12
09
1;
0>
0J
0O
0U
#410000000
1,
1.
17
19
1=
1>
b110 D
b111 G
1H
1J
1O
1U
#412500000
L%
b00000000 '
00
02
0;
1K
b100011 M
#415000000
0,
0.
10
12
09
1;
0>
0J
0O
0U
#420000000
1,
1.
19
1>
1J
1O
1U
#422500000
L%
b00000000 '
00
02
0;
1K
b100100 M
#425000000
0,
0.
10
12
09
1;
0>
0J
0O
0U
#430000000
1,
1.
19
1>
1J
1O
1U
#432500000
L%
b00000000 '
00
02
0;
1K
b100101 M
#435000000
0,
0.
10
12
09
1;
0>
0J
0O
0U
#440000000
1,
1.
19
1>
1J
1O
1U
#442500000
L%
b00000000 '
00
02
0;
1K
b100110 M
#445000000
0,
0.
10
12
09
1;
0>
0J
0O
0U
#450000000
1,
1.
19
1>
1J
1O
1U
#452500000
L%
b00000000 '
00
02
0;
1K
b100111 M
#455000000
0,
0.
10
12
09
1;
0>
0J
0O
0U
#460000000
1,
1.
19
1>
1J
1O
1U
#462500000
L%
b00000000 '
00
02
0;
1K
b101000 M
#465000000
0,
0.
10
13
09
0>
1@
0J
0O
0U
#470000000
1,
1.
07
19
0=
1>
b000 C
b110 G
0H
1J
1O
1U
#472500000
L%
b00000000 '
00
03
0@
1K
b101001 M
#475000000
0,
0.
10
13
09
0>
1@
0J
0O
0U
#480000000
1,
1.
19
1>
b001 C
b101 G
1J
1O
1U
#482500000
L%
b00000000 '
00
03
0@
1K
b101010 M
#485000000
0,
0.
10
13
09
0>
1@
0J
0O
0U
#490000000
1,
1.
19
1>
b010 C
b100 G
1J
1O
1U
#492500000
L%
b00000000 '
00
03
0@
1K
b101011 M
#495000000
0,
0.
10
13
09
0>
1@
0J
0O
0U
#500000000
1,
1.
19
1>
b011 C
b011 G
1J
1O
1U
#502500000
L%
b00000000 '
00
03
0@
1K
b101100 M
#505000000
0,
0.
10
12
09
1;
0>
0J
0O
0U
#510000000
1,
1.
19
1>
b111 D
b100 G
1J
1O
1U
#512500000
L%
b00000000 '
00
02
0;
1K
b101101 M
#515000000
0,
0.
10
12
09
1;
0>
0J
0O
0U
#520000000
1,
1.
19
1>
b000 D
b101 G
1J
1O
1U
#522500000
L%
b00000000 '
00
02
0;
1K
b101110 M
#525000000
0,
0.
10
13
09
0>
1@
0J
0O
0U
#530000000
1,
1.
19
1>
b100 C
b100 G
1J
1O
1U
#532500000
L%
b00000000 '
00
03
0@
1K
b101111 M
#535000000
0,
0.
10
13
09
0>
1@
0J
0O
0U
#540000000
1,
1.
19
1>
b101 C
b011 G
1J
1O
1U
#542500000
L%
b00000000 '
00
03
0@
1K
b110000 M
#545000000
0,
0.
10
13
09
0>
1@
0J
0O
0U
#550000000
1,
1.
19
1>
b110 C
b010 G
1J
1O
1U
#552500000
L%
b00000000 '
00
03
0@
1K
b110001 M
#555000000
0,
0.
10
13
09
0>
1@
0J
0O
0U
#560000000
1,
1.
19
1>
b111 C
b001 G
1J
1O
1U
#562500000
L%
b00000000 '
00
03
0@
1K
b110010 M
#565000000
0,
0.
10
13
09
0>
1@
0J
0O
0U
#570000000
1,
1.
18
19
1>
1B
b000 C
b000 G
1I
1J
1O
1U
#572500000
L%
b00000000 '
00
03
0@
1K
b110011 M
#575000000
0,
0.
10
12
09
1;
0>
0J
0O
0U
#580000000
1,
1.
08
19
1>
0B
b001 D
b001 G
0I
1J
1O
1U
#582500000
L%
b00000000 '
00
02
0;
1K
b110100 M
#585000000
0,
0.
10
12
09
1;
0>
0J
0O
0U
#590000000
1,
1.
19
1>
b010 D
b010 G
1J
1O
1U
#592500000
L%
b00000000 '
00
02
0;
1K
b110101 M
#595000000
0,
0.
10
13
09
0>
1@
0J
0O
0U
#600000000
1,
1.
19
1>
b001 C
b001 G
1J
1O
1U
#602500000
L%
b00000000 '
00
03
0@
1K
b110110 M
#605000000
0,
0.
10
13
09
0>
1@
0J
0O
0U
#610000000
1,
1.
18
19
1>
1B
b010 C
b000 G
1I
1J
1O
1U
#612500000
L%
b00000000 '
00
03
0@
1K
b110111 M
#615000000
0,
0.
10
12
09
1;
0>
0J
0O
0U
#620000000
1,
1.
08
19
1>
0B
b011 D
b001 G
0I
1J
1O
1U
#622500000
L%
b00000000 '
00
02
0;
1K
b111000 M
#625000000
0,
0.
10
12
09
1;
0>
0J
0O
0U
#630000000
1,
1.
19
1>
b100 D
b010 G
1J
1O
1U
#632500000
L%
b00000000 '
00
02
0;
1K
b111001 M
#635000000
0,
0.
10
12
09
1;
0>
0J
0O
0U
#640000000
1,
1.
19
1>
b101 D
b011 G
1J
1O
1U
#642500000
L%
b00000000 '
00
02
0;
1K
b111010 M
#645000000
0,
0.
10
12
09
1;
0>
0J
0O
0U
#650000000
1,
1.
19
1>
b110 D
b100 G
1J
1O
1U
#652500000
L%
b00000000 '
00
02
0;
1K
b111011 M
#655000000
0,
0.
10
13
09
0>
1@
0J
0O
0U
#660000000
1,
1.
19
1>
b011 C
b011 G
1J
1O
1U
#662500000
L%
00
03
0@
0K
b111100 M
