src/rtl/peripherals/fifo/sim/tb_fifo.vcd
$date
  Sun Sep  6 00:07:19 2020
$end
$version
  GHDL v0
$end
$timescale
  1 fs
$end
$scope module standard $end
$upscope $end
$scope module textio $end
$upscope $end
$scope module std_logic_1164 $end
$upscope $end
$scope module numeric_std $end
$upscope $end
$scope module types_pkg $end
$upscope $end
$scope module adaptations_pkg $end
$var reg 1 ! global_show_msg_for_uvvm_cmd $end
$upscope $end
$scope module math_real $end
$upscope $end
$scope module string_methods_pkg $end
$upscope $end
$scope module protected_types_pkg $end
$upscope $end
$scope module global_signals_and_shared_variables_pkg $end
$var reg 1 " global_trigger $end
$var reg 1 # global_barrier $end
$upscope $end
$scope module hierarchy_linked_list_pkg $end
$upscope $end
$scope module license_pkg $end
$upscope $end
$scope module env $end
$upscope $end
$scope module alert_hierarchy_pkg $end
$upscope $end
$scope module methods_pkg $end
$upscope $end
$scope module bfm_common_pkg $end
$upscope $end
$scope module ti_protected_types_pkg $end
$upscope $end
$scope module ti_vvc_framework_support_pkg $end
$var reg 1 $ vvc_broadcast $end
$var reg 1 % global_trigger_vvc_activity_register $end
$var reg 10 & global_awaiting_completion[9:0] $end
$upscope $end
$scope module generic_sb_support_pkg $end
$upscope $end
$scope module local_pkg $end
$upscope $end
$scope module slv_sb_pkg $end
$upscope $end
$scope module sbi_bfm_pkg $end
$upscope $end
$scope module transaction_pkg $end
$var reg 8 ' global_sbi_vvc_transaction_trigger[0:7] $end
$upscope $end
$scope module vvc_cmd_pkg $end
$upscope $end
$scope module td_target_support_pkg $end
$var reg 1 ( global_vvc_ack $end
$var reg 1 ) global_vvc_busy $end
$upscope $end
$scope module vvc_methods_pkg $end
$comment sbi_vvct is not handled $end
$upscope $end
$scope module td_vvc_framework_common_methods_pkg $end
$upscope $end
$scope module vvc_cmd_pkg $end
$upscope $end
$scope module td_target_support_pkg $end
$var reg 1 * global_vvc_ack $end
$var reg 1 + global_vvc_busy $end
$upscope $end
$scope module vvc_methods_pkg $end
$comment clock_generator_vvct is not handled $end
$upscope $end
$scope module td_vvc_framework_common_methods_pkg $end
$upscope $end
$scope module std_logic_arith $end
$upscope $end
$scope module std_logic_unsigned $end
$upscope $end
$scope module td_cmd_queue_pkg $end
$upscope $end
$scope module td_result_queue_pkg $end
$upscope $end
$scope module td_vvc_entity_support_pkg $end
$upscope $end
$scope module td_cmd_queue_pkg $end
$upscope $end
$scope module td_result_queue_pkg $end
$upscope $end
$scope module td_vvc_entity_support_pkg $end
$upscope $end
$scope module tb_fifo $end
$scope module i_test_harness $end
$var reg 1 , wrclk $end
$var reg 1 - wrrst $end
$var reg 1 . rdclk $end
$var reg 1 / rdrst $end
$var reg 1 0 rd_cs $end
$var reg 3 1 rd_addr[2:0] $end
$var reg 1 2 rd_wr $end
$var reg 1 3 rd_rd $end
$var reg 8 4 rd_wdata[7:0] $end
$var reg 8 5 rd_rdata[7:0] $end
$var reg 1 6 rd_ready $end
$var reg 1 7 wr_cs $end
$var reg 3 8 wr_addr[2:0] $end
$var reg 1 9 wr_wr $end
$var reg 1 : wr_rd $end
$var reg 8 ; wr_wdata[7:0] $end
$var reg 8 < wr_rdata[7:0] $end
$var reg 1 = wr_ready $end
$var reg 1 > fifo_full $end
$var reg 1 ? fifo_empty $end
$scope module i_ti_uvvm_engine $end
$upscope $end
$scope module fifo0 $end
$var reg 1 @ i_wrclk $end
$var reg 1 A i_wrrst $end
$var reg 1 B i_wren $end
$var reg 8 C i_wrdata[7:0] $end
$var reg 1 D o_full $end
$var reg 1 E i_rdclk $end
$var reg 1 F i_rdrst $end
$var reg 1 G i_rden $end
$var reg 8 H o_rddata[7:0] $end
$var reg 1 I o_empty $end
$comment mem is not handled $end
$var reg 4 J rd_addr[3:0] $end
$var reg 4 K wr_addr[3:0] $end
$var reg 3 L ac_rd_addr[2:0] $end
$var reg 3 M ac_wr_addr[2:0] $end
$var reg 4 N grey_rd_addr[3:0] $end
$var reg 4 O grey_wr_addr[3:0] $end
$var reg 4 P sync_rd_addr[3:0] $end
$var reg 4 Q sync_wr_addr[3:0] $end
$var reg 4 R grey_rd_addr1[3:0] $end
$var reg 4 S grey_wr_addr1[3:0] $end
$var reg 4 T grey_rd_addr2[3:0] $end
$var reg 4 U grey_wr_addr2[3:0] $end
$var reg 8 V rd_data[7:0] $end
$var reg 8 W wr_data[7:0] $end
$var reg 3 X count[2:0] $end
$var reg 1 Y full $end
$var reg 1 Z empty $end
$scope module g0(1) $end
$upscope $end
$scope module g0(2) $end
$upscope $end
$scope module g1(1) $end
$upscope $end
$scope module g1(2) $end
$upscope $end
$scope module g2(1) $end
$upscope $end
$scope module g2(2) $end
$upscope $end
$scope module g3(1) $end
$upscope $end
$scope module g3(2) $end
$upscope $end
$upscope $end
$scope module i1_sbi_vvc $end
$var reg 1 [ clk $end
$comment sbi_vvc_master_if is not handled $end
$var reg 1 \ executor_is_busy $end
$var reg 1 ] queue_is_increasing $end
$var integer 32 ^ last_cmd_idx_executed $end
$comment terminate_current_cmd is not handled $end
$var integer 32 _ entry_num_in_vvc_activity_register $end
$upscope $end
$scope module i2_sbi_vvc $end
$var reg 1 ` clk $end
$comment sbi_vvc_master_if is not handled $end
$var reg 1 a executor_is_busy $end
$var reg 1 b queue_is_increasing $end
$var integer 32 c last_cmd_idx_executed $end
$comment terminate_current_cmd is not handled $end
$var integer 32 d entry_num_in_vvc_activity_register $end
$upscope $end
$scope module i_wrclock_generator_vvc $end
$var reg 1 e clk $end
$var reg 1 f executor_is_busy $end
$var reg 1 g queue_is_increasing $end
$var integer 32 h last_cmd_idx_executed $end
$comment terminate_current_cmd is not handled $end
$var reg 1 i clock_ena $end
$var integer 32 j entry_num_in_vvc_activity_register $end
$upscope $end
$scope module i_rdclock_generator_vvc $end
$var reg 1 k clk $end
$var reg 1 l executor_is_busy $end
$var reg 1 m queue_is_increasing $end
$var integer 32 n last_cmd_idx_executed $end
$comment terminate_current_cmd is not handled $end
$var reg 1 o clock_ena $end
$var integer 32 p entry_num_in_vvc_activity_register $end
$upscope $end
$upscope $end
$upscope $end
$enddefinitions $end
#0
1!
L"
X#
Z$
L%
bZZZZZZZZZZ &
b00000000 '
Z(
L)
Z*
L+
1,
1-
1.
1/
00
b000 1
02
03
b00000000 4
b00000000 5
16
07
b000 8
09
0:
b00000000 ;
bZZZZZZZZ <
1=
0>
0?
1@
1A
0B
b00000000 C
0D
1E
1F
0G
b00000000 H
0I
b0000 J
b0000 K
b000 L
b000 M
bU000 N
bU000 O
bUUUU P
bUUUU Q
bUUUU R
bUUUU S
bUUUU T
bUUUU U
b00000000 V
bUUUUUUUU W
bUUU X
0Y
0Z
1[
0\
0]
b0 ^
b11 _
1`
0a
0b
b0 c
b10 d
1e
0f
0g
b1 h
1i
b1 j
1k
0l
0m
b1 n
1o
b0 p
#100000000
Z$
L%
b00000000 '
Z(
L)
1\
0]
1a
0b
#200000000
0-
0A
#300000000
Z$
Z(
L)
0]
0b
#500000000
0,
0.
10
b010 1
13
17
b010 8
19
b01010101 ;
0@
1B
b01010101 C
0E
1G
0[
0`
0e
0k
#1000000000
1,
1.
1@
1E
b0001 K
b001 M
bU011 O
bU000 S
1[
1`
1e
1k
#1250000000
L%
b00000000 '
00
03
07
09
0B
0G
1\
b1000 ^
1a
b10100 c
#1500000000
0,
0.
10
13
17
19
0@
1B
0E
1G
0[
0`
0e
0k
#2000000000
1,
1.
0/
b01010101 5
1@
1E
0F
b01010101 H
b0001 J
b0010 K
b001 L
b010 M
bU011 N
bU110 O
bU010 Q
bU000 R
bU011 S
bU000 U
b01010101 V
1[
1`
1e
1k
#2250000000
L%
b00000000 '
00
03
07
09
0B
0G
1\
b1001 ^
1a
b10101 c
#2500000000
0,
0.
10
13
17
19
0@
1B
0E
1G
0[
0`
0e
0k
#3000000000
1,
1.
1@
1E
b0010 J
b0011 K
b010 L
b011 M
bU110 N
bU101 O
bU010 P
bU101 Q
bU011 R
bU110 S
bU000 T
bU011 U
1[
1`
1e
1k
#3250000000
L%
b00000000 '
00
03
07
09
0B
0G
1\
b1010 ^
1a
b10110 c
#3500000000
0,
0.
10
13
17
19
0@
1B
0E
1G
0[
0`
0e
0k
#4000000000
1,
1.
1@
1E
b0011 J
b0100 K
b011 L
b100 M
bU101 N
bU100 O
bU101 P
bU000 Q
bU110 R
bU101 S
bU011 T
bU110 U
1[
1`
1e
1k
#4250000000
L%
b00000000 '
00
03
07
09
0B
0G
1\
b1011 ^
1a
b10111 c
#4500000000
0,
0.
10
13
17
19
0@
1B
0E
1G
0[
0`
0e
0k
#5000000000
1,
1.
1@
1E
b0100 J
b0101 K
b100 L
b101 M
bU100 N
bU111 O
bU000 P
bU111 Q
bU101 R
bU100 S
bU110 T
bU101 U
1[
1`
1e
1k
#5250000000
L%
b00000000 '
00
03
07
09
0B
0G
1\
b1100 ^
1a
b11000 c
#5500000000
0,
0.
10
13
17
19
0@
1B
0E
1G
0[
0`
0e
0k
#6000000000
1,
1.
1@
1E
b0101 J
b0110 K
b101 L
b110 M
bU111 N
bU010 O
bU111 P
bU110 Q
bU100 R
bU111 S
bU101 T
bU100 U
1[
1`
1e
1k
#6250000000
L%
b00000000 '
00
03
07
09
0B
0G
1\
b1101 ^
1a
b11001 c
#6500000000
0,
0.
10
13
17
19
0@
1B
0E
1G
0[
0`
0e
0k
#7000000000
1,
1.
1@
1E
b0110 J
b0111 K
b110 L
b111 M
bU010 N
bU001 O
bU110 P
bU001 Q
bU111 R
bU010 S
bU100 T
bU111 U
1[
1`
1e
1k
#7250000000
L%
b00000000 '
00
03
07
09
0B
0G
1\
b1110 ^
1a
b11010 c
#7500000000
0,
0.
10
13
17
19
0@
1B
0E
1G
0[
0`
0e
0k
#8000000000
1,
1.
1@
1E
b0111 J
b1000 K
b111 L
b000 M
bU001 N
bU000 O
bU001 P
bU100 Q
bU010 R
bU001 S
bU111 T
bU010 U
1[
1`
1e
1k
#8250000000
L%
b00000000 '
00
03
07
09
0B
0G
1\
b1111 ^
1a
b11011 c
#8500000000
0,
0.
10
13
17
19
0@
1B
0E
1G
0[
0`
0e
0k
#9000000000
1,
1.
1@
1E
b1000 J
b1001 K
b000 L
b001 M
bU000 N
bU011 O
bU100 P
bU011 Q
bU001 R
bU000 S
bU010 T
bU001 U
1[
1`
1e
1k
#9250000000
L%
b00000000 '
00
03
07
09
0B
0G
1\
b10000 ^
1a
b11100 c
#9500000000
0,
0.
10
13
17
19
0@
1B
0E
1G
0[
0`
0e
0k
#10000000000
1,
1.
1@
1E
b1001 J
b1010 K
b001 L
b010 M
bU011 N
bU110 O
bU011 P
bU010 Q
bU000 R
bU011 S
bU001 T
bU000 U
1[
1`
1e
1k
#10250000000
L%
b00000000 '
00
03
07
09
0B
0G
1\
b10001 ^
1a
b11101 c
#10500000000
0,
0.
10
13
17
19
0@
1B
0E
1G
0[
0`
0e
0k
#11000000000
1,
1.
1@
1E
b1010 J
b1011 K
b010 L
b011 M
bU110 N
bU101 O
bU010 P
bU101 Q
bU011 R
bU110 S
bU000 T
bU011 U
1[
1`
1e
1k
#11250000000
L%
b00000000 '
00
03
07
09
0B
0G
1\
b10010 ^
1a
b11110 c
#11500000000
0,
0.
10
13
17
19
0@
1B
0E
1G
0[
0`
0e
0k
#12000000000
1,
1.
1@
1E
b1011 J
b1100 K
b011 L
b100 M
bU101 N
bU100 O
bU101 P
bU000 Q
bU110 R
bU101 S
bU011 T
bU110 U
1[
1`
1e
1k
#12250000000
L%
b00000000 '
00
03
07
09
0B
0G
1\
b10011 ^
1a
b11111 c
#12500000000
0,
0.
10
13
17
19
0@
1B
0E
1G
0[
0`
0e
0k
#13000000000
1,
1.
1@
1E
b1100 J
b1101 K
b100 L
b101 M
bU100 N
bU111 O
bU000 P
bU111 Q
bU101 R
bU100 S
bU110 T
bU101 U
1[
1`
1e
1k
#13250000000
L%
b00000000 '
00
03
07
09
0B
0G
1\
b100000 ^
1a
b101100 c
#13500000000
0,
0.
10
13
17
19
0@
1B
0E
1G
0[
0`
0e
0k
#14000000000
1,
1.
1@
1E
b1101 J
b1110 K
b101 L
b110 M
bU111 N
bU010 O
bU111 P
bU110 Q
bU100 R
bU111 S
bU101 T
bU100 U
1[
1`
1e
1k
#14250000000
L%
b00000000 '
00
03
07
09
0B
0G
1\
b100001 ^
1a
b101101 c
#14500000000
0,
0.
10
13
17
19
0@
1B
0E
1G
0[
0`
0e
0k
#15000000000
1,
1.
1@
1E
b1110 J
b1111 K
b110 L
b111 M
bU010 N
bU001 O
bU110 P
bU001 Q
bU111 R
bU010 S
bU100 T
bU111 U
1[
1`
1e
1k
#15250000000
L%
b00000000 '
00
03
07
09
0B
0G
1\
b100010 ^
1a
b101110 c
#15500000000
0,
0.
10
13
17
19
0@
1B
0E
1G
0[
0`
0e
0k
#16000000000
1,
1.
1@
1E
b1111 J
b0000 K
b111 L
b000 M
bU001 N
bU000 O
bU001 P
bU100 Q
bU010 R
bU001 S
bU111 T
bU010 U
1[
1`
1e
1k
#16250000000
L%
b00000000 '
00
03
07
09
0B
0G
1\
b100011 ^
1a
b101111 c
#16500000000
0,
0.
10
13
17
19
0@
1B
0E
1G
0[
0`
0e
0k
#17000000000
1,
1.
1@
1E
b0000 J
b0001 K
b000 L
b001 M
bU000 N
bU011 O
bU100 P
bU011 Q
bU001 R
bU000 S
bU010 T
bU001 U
1[
1`
1e
1k
#17250000000
L%
b00000000 '
00
03
07
09
0B
0G
1\
b100100 ^
1a
b110010 c
#17500000000
0,
0.
10
13
17
19
0@
1B
0E
1G
0[
0`
0e
0k
#18000000000
1,
1.
1@
1E
b0001 J
b0010 K
b001 L
b010 M
bU011 N
bU110 O
bU011 P
bU010 Q
bU000 R
bU011 S
bU001 T
bU000 U
1[
1`
1e
1k
#18250000000
L%
b00000000 '
00
03
07
09
0B
0G
1\
b100101 ^
1a
b110011 c
#18500000000
0,
0.
10
13
17
19
0@
1B
0E
1G
0[
0`
0e
0k
#19000000000
1,
1.
1@
1E
b0010 J
b0011 K
b010 L
b011 M
bU110 N
bU101 O
bU010 P
bU101 Q
bU011 R
bU110 S
bU000 T
bU011 U
1[
1`
1e
1k
#19250000000
L%
b00000000 '
00
03
07
09
0B
0G
1\
b100110 ^
1a
b110100 c
#19500000000
0,
0.
10
13
17
19
0@
1B
0E
1G
0[
0`
0e
0k
#20000000000
1,
1.
1@
1E
b0011 J
b0100 K
b011 L
b100 M
bU101 N
bU100 O
bU101 P
bU000 Q
bU110 R
bU101 S
bU011 T
bU110 U
1[
1`
1e
1k
#20250000000
L%
b00000000 '
00
03
07
09
0B
0G
1\
b100111 ^
1a
b110101 c
#20500000000
0,
0.
10
13
17
19
0@
1B
0E
1G
0[
0`
0e
0k
#21000000000
1,
1.
1@
1E
b0100 J
b0101 K
b100 L
b101 M
bU100 N
bU111 O
bU000 P
bU111 Q
bU101 R
bU100 S
bU110 T
bU101 U
1[
1`
1e
1k
#21250000000
L%
b00000000 '
00
03
07
09
0B
0G
1\
b101000 ^
1a
b110110 c
#21500000000
0,
0.
10
13
17
19
0@
1B
0E
1G
0[
0`
0e
0k
#22000000000
1,
1.
1@
1E
b0101 J
b0110 K
b101 L
b110 M
bU111 N
bU010 O
bU111 P
bU110 Q
bU100 R
bU111 S
bU101 T
bU100 U
1[
1`
1e
1k
#22250000000
L%
b00000000 '
00
03
07
09
0B
0G
1\
b101001 ^
1a
b111001 c
#22500000000
0,
0.
10
13
17
19
0@
1B
0E
1G
0[
0`
0e
0k
#23000000000
1,
1.
1@
1E
b0110 J
b0111 K
b110 L
b111 M
bU010 N
bU001 O
bU110 P
bU001 Q
bU111 R
bU010 S
bU100 T
bU111 U
1[
1`
1e
1k
#23250000000
L%
b00000000 '
00
03
07
09
0B
0G
1\
b101010 ^
1a
b111010 c
#23500000000
0,
0.
10
13
17
19
0@
1B
0E
1G
0[
0`
0e
0k
#24000000000
1,
1.
1@
1E
b0111 J
b1000 K
b111 L
b000 M
bU001 N
bU000 O
bU001 P
bU100 Q
bU010 R
bU001 S
bU111 T
bU010 U
1[
1`
1e
1k
#24250000000
L%
b00000000 '
00
03
07
09
0B
0G
1\
b101011 ^
0a
b111111 c
#24500000000
0,
0.
17
19
0@
1B
0E
0[
0`
0e
0k
#25000000000
1,
1.
1@
1E
b1001 K
b001 M
bU011 O
bU010 P
bU011 Q
bU001 R
bU000 S
bU010 T
bU001 U
1[
1`
1e
1k
#25250000000
L%
b00000000 '
07
09
0B
1\
b110000 ^
#25500000000
0,
0.
17
19
0@
1B
0E
0[
0`
0e
0k
#26000000000
1,
1.
1@
1E
b1010 K
b010 M
bU110 O
bU101 P
bU010 Q
bU011 S
bU001 T
bU000 U
1[
1`
1e
1k
#26250000000
L%
b00000000 '
07
09
0B
1\
b110001 ^
#26500000000
0,
0.
17
19
0@
1B
0E
0[
0`
0e
0k
#27000000000
1,
1.
1@
1E
b1011 K
b011 M
bU101 O
bU101 Q
bU110 S
bU011 U
1[
1`
1e
1k
#27250000000
L%
b00000000 '
07
09
0B
1\
b110111 ^
#27500000000
0,
0.
17
19
0@
1B
0E
0[
0`
0e
0k
#28000000000
1,
1.
1@
1E
b1100 K
b100 M
bU100 O
bU000 Q
bU101 S
bU110 U
1[
1`
1e
1k
#28250000000
L%
b00000000 '
07
09
0B
1\
b111000 ^
#28500000000
0,
0.
17
19
0@
1B
0E
0[
0`
0e
0k
#29000000000
1,
1.
1@
1E
b1101 K
b101 M
bU111 O
bU111 Q
bU100 S
bU101 U
1[
1`
1e
1k
#29250000000
L%
b00000000 '
07
09
0B
1\
b111011 ^
#29500000000
0,
0.
17
19
0@
1B
0E
0[
0`
0e
0k
#30000000000
1,
1.
1@
1E
b1110 K
b110 M
bU010 O
bU110 Q
bU111 S
bU100 U
1[
1`
1e
1k
#30250000000
L%
b00000000 '
07
09
0B
1\
b111100 ^
#30500000000
0,
0.
17
19
0@
1B
0E
0[
0`
0e
0k
#31000000000
1,
1.
1@
1E
b1111 K
b111 M
bU001 O
bU001 Q
bU010 S
bU111 U
1[
1`
1e
1k
#31250000000
L%
b00000000 '
07
09
0B
1\
b111101 ^
#31500000000
0,
0.
17
19
0@
1B
0E
0[
0`
0e
0k
#32000000000
1,
1.
1@
1E
b0000 K
b000 M
bU000 O
bU100 Q
bU001 S
bU010 U
1[
1`
1e
1k
#32250000000
L%
07
09
0B
0\
b111110 ^
#32500000000
0,
0.
0@
0E
0[
0`
0e
0k
#33000000000
1,
1.
1@
1E
bU011 Q
bU000 S
bU001 U
1[
1`
1e
1k
